Welcome!
…
---
background-image:url(https://allisonhorst.github.io/palmerpenguins/reference/figures/lter_penguins.png)
background-size: contain

# Penguin data

---

``` r
library(palmerpenguins)
penguins
```

```
## # A tibble: 344 × 8
##    species island    bill_length_mm bill_depth_mm flipper_length_mm body_mass_g sex     year
##    <fct>   <fct>              <dbl>         <dbl>             <int>       <int> <fct>  <int>
##  1 Adelie  Torgersen           39.1          18.7               181        3750 male    2007
##  2 Adelie  Torgersen           39.5          17.4               186        3800 female  2007
##  3 Adelie  Torgersen           40.3          18                 195        3250 female  2007
##  4 Adelie  Torgersen           NA            NA                  NA          NA <NA>    2007
##  5 Adelie  Torgersen           36.7          19.3               193        3450 female  2007
##  6 Adelie  Torgersen           39.3          20.6               190        3650 male    2007
##  7 Adelie  Torgersen           38.9          17.8               181        3625 female  2007
##  8 Adelie  Torgersen           39.2          19.6               195        4675 male    2007
##  9 Adelie  Torgersen           34.1          18.1               193        3475 <NA>    2007
## 10 Adelie  Torgersen           42            20.2               190        4250 <NA>    2007
## # ℹ 334 more rows
```
…
---
# Rearrange

``` r
tuition %>%
  pivot_longer(`2004-05`:`2015-16`,
               names_to = "year", 
               values_to = "avg_tuition") 
```

```
## # A tibble: 600 × 3
##    State   year    avg_tuition
##    <chr>   <chr>         <dbl>
##  1 Alabama 2004-05       5683.
##  2 Alabama 2005-06       5841.
##  3 Alabama 2006-07       5753.
##  4 Alabama 2007-08       6008.
##  5 Alabama 2008-09       6475.
##  6 Alabama 2009-10       7189.
##  7 Alabama 2010-11       8071.
##  8 Alabama 2011-12       8452.
##  9 Alabama 2012-13       9098.
## 10 Alabama 2013-14       9359.
## # ℹ 590 more rows
```
…
--
Treat time (year) as a continuous variable

---
# Grouped points
Show change in tuition from 05-06 to 2015-16

``` r
tuition %>% 
  select(State, `2005-06`, `2015-16`)
```

```
## # A tibble: 50 × 3
##    State       `2005-06` `2015-16`
##    <chr>           <dbl>     <dbl>
##  1 Alabama         5841.     9751.
##  2 Alaska          4633.     6571.
##  3 Arizona         5416.    10646.
##  4 Arkansas        6082.     7867.
##  5 California      5528.     9270.
##  6 Colorado        5407.     9748.
##  7 Connecticut     8249.    11397.
##  8 Delaware        8611.    11676.
##  9 Florida         3924.     6360.
## 10 Georgia         4492.     8447.
## # ℹ 40 more rows
```

---

``` r
lt <- tuition %>% 
  select(State, `2005-06`, `2015-16`) %>% 
  pivot_longer(`2005-06`:`2015-16`,
               names_to = "Year", 
               values_to = "Tuition")
lt
```

```
## # A tibble: 100 × 3
##    State      Year    Tuition
##    <chr>      <chr>     <dbl>
##  1 Alabama    2005-06   5841.
##  2 Alabama    2015-16   9751.
##  3 Alaska     2005-06   4633.
##  4 Alaska     2015-16   6571.
##  5 Arizona    2005-06   5416.
##  6 Arizona    2015-16  10646.
##  7 Arkansas   2005-06   6082.
##  8 Arkansas   2015-16   7867.
##  9 California 2005-06   5528.
## 10 California 2015-16   9270.
## # ℹ 90 more rows
```
…
``` r
tuition_l <- tuition %>%
    pivot_longer(-State,
                 names_to = "year", 
                 values_to = "avg_tuition") 

tuition_l
```

```
## # A tibble: 600 × 3
##    State   year    avg_tuition
##    <chr>   <chr>         <dbl>
##  1 Alabama 2004-05       5683.
##  2 Alabama 2005-06       5841.
##  3 Alabama 2006-07       5753.
##  4 Alabama 2007-08       6008.
##  5 Alabama 2008-09       6475.
##  6 Alabama 2009-10       7189.
##  7 Alabama 2010-11       8071.
##  8 Alabama 2011-12       8452.
##  9 Alabama 2012-13       9098.
## 10 Alabama 2013-14       9359.
## # ℹ 590 more rows
```
…
``` r
d
```

```
## # A tibble: 11,326 × 29
##    ALL_COHORT ALL_RATE CWD_COHORT CWD_RATE DATE_CUR ECD_COHORT ECD_RATE FIPST FILEURL    LEAID LEANM LEP_COHORT LEP_RATE MAM_COHORT MAM_RATE MAS_COHORT MAS_RATE
##         <dbl> <chr>         <dbl> <chr>    <chr>         <dbl> <chr>    <chr> <chr>      <chr> <chr>      <dbl> <chr>         <dbl> <chr>         <dbl> <chr>   
##  1        252 80                3 PS       03OCT15         121 65-69    01    https://w… 0100… Albe…         10 LT50             NA <NA>             NA <NA>    
##  2        398 75               47 70-79    03OCT15         233 65-69    01    https://w… 0100… Mars…         10 LT50              6 GE50              1 PS      
##  3       1020 89               51 40-49    03OCT15         175 75-79    01    https://w… 0100… Hoov…         12 LT50              2 PS               53 80-89   
##  4        750 91               35 60-69    03OCT15         102 80-84    01    https://w… 0100… Madi…         12 GE50              9 GE50             53 80-89   
##  5        128 55-59            15 LT50     03OCT15          68 40-44    01    https://w… 0100… Leed…          3 PS               NA <NA>              2 PS      
##  6        166 90-94             9 GE50     03OCT15          53 70-79    01    https://w… 0100… Boaz…          6 GE50             NA <NA>              1 PS      
##  7        336 90               30 60-79    03OCT15          35 60-69    01    https://w… 0100… Trus…          4 PS               NA <NA>              2 PS      
##  8        273 77               11 LT50     03OCT15          93 70-74    01    https://w… 0100… Alex…          1 PS                2 PS                1 PS      
##  9        134 70-74             4 PS       03OCT15          60 50-59    01    https://w… 0100… Anda…         NA <NA>             NA <NA>             NA <NA>    
## 10        266 58               33 50-59    03OCT15         195 55-59    01    https://w… 0100… Anni…          3 PS               NA <NA>              3 PS      
## # ℹ 11,316 more rows
## # ℹ 12 more variables: MBL_COHORT <dbl>, MBL_RATE <chr>, MHI_COHORT <dbl>, MHI_RATE <chr>, MTR_COHORT <dbl>, MTR_RATE <chr>, MWH_COHORT <dbl>, MWH_RATE <chr>,
## #   STNAM <chr>, YEAR <dbl>, PIPELINE <chr>, DL_INGESTION_DATETIME <dttm>
```
…
---
# Quick Check

``` r
d %>% 
  select(LEANM, county) %>% 
  print(n = 15)
```

```
## # A tibble: 11,326 × 2
##    LEANM            county
##    <chr>            <lgl> 
##  1 Albertville City FALSE 
##  2 Marshall County  TRUE  
##  3 Hoover City      FALSE 
##  4 Madison City     FALSE 
##  5 Leeds City       FALSE 
##  6 Boaz City        FALSE 
##  7 Trussville City  FALSE 
##  8 Alexander City   FALSE 
##  9 Andalusia City   FALSE 
## 10 Anniston City    FALSE 
## 11 Arab City        FALSE 
## 12 Athens City      FALSE 
## 13 Attalla City     FALSE 
## 14 Auburn City      FALSE 
## 15 Autauga County   TRUE  
## # ℹ 11,311 more rows
```
…
* Lots of ways to do this. Use `base::gsub()` or `stringr::str_replace_all()`

* Replace everything after the space with nothing

--

``` r
d %>% 
  select(LEANM) %>% 
  mutate(new_name = gsub(" .+", "", LEANM))
```

```
## # A tibble: 11,326 × 2
##    LEANM            new_name   
##    <chr>            <chr>      
##  1 Albertville City Albertville
##  2 Marshall County  Marshall   
##  3 Hoover City      Hoover     
##  4 Madison City     Madison    
##  5 Leeds City       Leeds      
##  6 Boaz City        Boaz       
##  7 Trussville City  Trussville 
##  8 Alexander City   Alexander  
##  9 Andalusia City   Andalusia  
## 10 Anniston City    Anniston   
## # ℹ 11,316 more rows
```

---
# Another way
There are other ways too, of course

``` r
d %>% 
  select(LEANM) %>% 
  mutate(new_name = gsub(" City$| County$", "", LEANM))
```

```
## # A tibble: 11,326 × 2
##    LEANM            new_name   
##    <chr>            <chr>      
##  1 Albertville City Albertville
##  2 Marshall County  Marshall   
##  3 Hoover City      Hoover     
##  4 Madison City     Madison    
##  5 Leeds City       Leeds      
##  6 Boaz City        Boaz       
##  7 Trussville City  Trussville 
##  8 Alexander City   Alexander  
##  9 Andalusia City   Andalusia  
## 10 Anniston City    Anniston   
## # ℹ 11,316 more rows
```
…
