Colors/Themes + Inclusive Design Principles
…
.footnote[See more about the Okabe Ito palette origins [here](https://easystats.github.io/see/reference/scale_color_okabeito.html)
]
---
# How do we use them?
Imagine we have data like this

``` r
popgrowth_df
```

```
## # A tibble: 51 x 7
##   region    division           state         pop2000 pop2010 popgrowth   area
##   <fct>     <chr>              <fct>           <dbl>   <dbl>     <dbl>  <dbl>
## 1 Midwest   East North Central Michigan       9.94e6  9.88e6  -0.00551 56539.
## 2 Northeast New England        Rhode Island   1.05e6  1.05e6   0.00405  1034.
## 3 South     West South Central Louisiana      4.47e6  4.53e6   0.0144  43204.
## 4 Midwest   East North Central Ohio           1.14e7  1.15e7   0.0162  40861.
## 5 Northeast Middle Atlantic    New York       1.90e7  1.94e7   0.0212  47126.
## 6 South     South Atlantic     West Virginia  1.81e6  1.85e6   0.0247  24038.
## # i 45 more rows
```
…
First the data:

``` r
hm <- diamonds %>% 
  select(table, price, depth, carat) %>% 
  corrr::correlate() %>% 
  pivot_longer(-term) %>% 
  mutate(name = fct_reorder(name, value),
         term = fct_reorder(term, value))
hm
```

```
## # A tibble: 16 x 3
##   term  name   value
##   <fct> <fct>  <dbl>
## 1 table table NA    
## 2 table price  0.127
## 3 table depth -0.296
## 4 table carat  0.182
## 5 price table  0.127
## 6 price price NA    
## # i 10 more rows
```
…
